…
``` r
most_popular = 
  nyc_airbnb %>%
  group_by(neighbourhood, borough) %>%
  distinct () #%>%
  #summarize(n_obs = n()) %>%
  #ungroup() %>% 
  #mutate(rank = min_rank(desc(n_obs)))
  #filter (rank < 5) %>% 
  #arrange(neighbourhood_group,n_obs)

most_popular
```

    ## # A tibble: 40,753 × 18
    ## # Groups:   neighbourhood, borough [217]
    ##          id review_s…¹ name  host_id host_…² borough neigh…³   lat  long room_…⁴
    ##       <dbl>      <dbl> <chr>   <dbl> <chr>   <chr>   <chr>   <dbl> <dbl> <chr>  
    ##  1  7949480         10 City…  1.19e5 Linda … Bronx   City I… -73.8  40.9 Privat…
    ##  2 16042478         NA WATE…  9.12e6 Collins Bronx   City I… -73.8  40.9 Privat…
    ##  3  1886820         NA Quai…  9.82e6 Steve   Bronx   City I… -73.8  40.8 Entire…
    ##  4  6627449         10 Larg…  1.39e7 Arlene  Bronx   City I… -73.8  40.8 Entire…
    ##  5  5557381         10 Quai…  2.88e7 Phoebe  Bronx   City I… -73.8  40.9 Privat…
    ##  6  9147025         10 Cozy…  4.03e5 Diane   Bronx   City I… -73.8  40.8 Entire…
    ##  7 11675715         10 Cozy…  5.67e7 Josue   Bronx   City I… -73.8  40.9 Entire…
    ##  8   715270          9 2 Be…  3.68e6 Enrique Bronx   Allert… -73.9  40.9 Privat…
    ##  9 17876530         10 Spac…  1.13e7 Yahaira Bronx   Allert… -73.9  40.9 Entire…
    ## 10   182177          9 PRIV…  8.73e5 Christ… Bronx   Allert… -73.9  40.9 Entire…
    ## # … with 40,743 more rows, 8 more variables: price <dbl>, minimum_nights <dbl>,
    ## #   number_of_reviews <dbl>, last_review <date>, reviews_per_month <dbl>,
    ## #   calculated_host_listings_count <dbl>, availability_365 <dbl>, stars <dbl>,
    ## #   and abbreviated variable names ¹​review_scores_location, ²​host_name,
    ## #   ³​neighbourhood, ⁴​room_type
…
<img src="case_study_files/figure-gfm/unnamed-chunk-7-1.png" width="90%" />

Somewhat fancy boxplot!

``` r
nyc_airbnb %>% 
  filter(borough == "Manhattan") %>% 
  group_by(neighbourhood) %>% 
  summarize(mean_price = mean(price, na.rm = TRUE )) %>% 
  arrange(desc(mean_price))
```

    ## # A tibble: 32 × 2
    ##    neighbourhood     mean_price
    ##    <chr>                  <dbl>
    ##  1 Tribeca                 353.
    ##  2 Flatiron District       319.
    ##  3 NoHo                    302.
    ##  4 Greenwich Village       258.
    ##  5 SoHo                    256.
    ##  6 Midtown                 251.
    ##  7 West Village            239.
    ##  8 Chelsea                 233.
    ##  9 Theater District        232.
    ## 10 Battery Park City       221.
    ## # … with 22 more rows
…
